{
  "layer": "top",       // Waybar at top layer
  "position": "bottom", // Waybar position (top|bottom|left|right)
  // "height": ,

  // Choose the order of the modules
  "modules-left":   ["idle_inhibitor", "sway/language", "sway/workspaces", "sway/mode"],
  "modules-center": [],
  "modules-right":  ["wireplumber", "backlight", "battery",
    "power-profiles-daemon", "network", "tray", "clock"],

  "hyprland/workspaces": {
    "format": "{id}",
    "active-only" : false,
    "show-special": true,
  },

  "hyprland/window": {
    "format": "{title}",
  },

  "hyprland/submap": {
    "format": "✌️ {}",
    "max-length": 8,
    "tooltip": false
  },

  "sway/mode": {
    "format": "{}"
  },
  "sway/scratchpad": {
    "format": "{icon} {count}",
    "show-empty": false,
    "format-icons": ["", ""],
    "tooltip": true,
    "tooltip-format": "{app}: {title}"
  },
  "tray": {
    "spacing": 10
  },
  "idle_inhibitor": {
    "format": "{icon}",
    "format-icons": {
      "activated": "",
      "deactivated": ""
    },
    "tooltip": true,
    "tooltip-format-deactivated": "Screen turns off automatically",
    "tooltip-format-activated": "Screen stays turned on",

  },
  "wireplumber": {
    "format": "{icon} {volume:3}%",
    "format-muted": " {volume}%",
    "on-click": "qpwgraph",
    "format-icons": ["", "", ""]
  },
  "backlight": {
    "device": "intel_video",
    "format": "{icon} {percent}%",
    "format-icons": [""]
  },
  "power-profiles-daemon": {
  "format": "{icon}",
  "tooltip-format": "Power profile: {profile}\nDriver: {driver}",
  "tooltip": true,
  "format-icons": {
    "default": "",
    "performance": "",
    "balanced": "",
    "power-saver": ""
  }
  },
  "keyboard-state": {
    "numlock": true,
    "capslock": true,
    "format": "{name} {icon}",
    "format-icons": {
      "locked": "",
      "unlocked": ""
    }
  },
  "sway/language": {
    "format": " {short}"

  },
  "hyprland/language": {
    "format": " {}",
    "format-us": "US",
    "format-gr": "GR",
    "keyboard-name": "at-translated-set-2-keyboard"
  },
  "battery": {
    "states": {
      "good": 95,
      "warning": 30,
      "critical": 15
    },
    "format":          "{icon} {capacity}%",
    "format-charging": " {capacity}%",
    "format-plugged":  " {capacity}%",
    "format-alt":      "{icon} {time}",
    "tooltip-format": "Consumption: {power}W.\nTime remaining: {time}",
    // "format-good": "", // An empty format will hide the module
    // "format-full": "",
    "format-icons": ["", "", "", "", ""]
  },
  "network": {
    // "interval": 10,
    "format-wifi":         "",
    // "format-wifi":         "  {bandwidthDownBytes} {bandwidthUpBytes}",
    "format-ethernet":     " {ipaddr}/{cidr}",
    "format-linked":       " {ifname} (No IP)",
    "format-disconnected": "⚠ Disconnected",
    "format-disabled":    " Disabled",
    "tooltip-format":      "{essid}\n{ifname} via {gwaddr} ({signalStrength}%)"
  },
  "clock": {
    "format": " {:%a %b %d %H:%M %Z}",
    "tooltip-format": "<big>{:%Y %B}</big>\n<tt><small>{calendar}</small></tt>",
    // "timezone": "Europe/Athens",
    "format-alt": " {:%Y-%m-%d}"
  }
}
